#⏰更新时间：2024/07/28
#俊哥（http://home.jundie.top:81/top98.json）直播源：http://home.jundie.top:81/Cat/tv/live.txt

央视,#genre#
CCTV-1 综合,http://[2409:8087:1a01:df::7005]:80/ottrrs.hl.chinamobile.com/PLTV/88888888/224/3221226559/index.m3u8
CCTV-1 综合,http://[2409:8087:5e01:34::20]:6610/ZTE_CMS/00000001000000060000000000000131/index.m3u8?IAS
CCTV-1 综合,http://[2409:8087:5e00:24::1e]:6060/200000001898/460000089800010144/1.m3u8
CCTV-2 财经,http://[2409:8087:1a01:df::7005]:80/ottrrs.hl.chinamobile.com/PLTV/88888888/224/3221226540/index.m3u8
CCTV-2 财经,http://[2409:8087:5e01:34::22]:6610/ZTE_CMS/00000001000000060000000000000372/index.m3u8?IAS
CCTV-2 财经,http://[2409:8087:5e00:24::1e]:6060/200000001898/460000089800010211/1.m3u8
CCTV-3 综艺,http://[2409:8087:1a01:df::4077]:80/PLTV/88888888/224/3221225799/index.m3u8
CCTV-3 综艺,http://[2409:8087:1a01:df::7005]:80/ottrrs.hl.chinamobile.com/PLTV/88888888/224/3221226021/index.m3u8
CCTV-3 综艺,http://[2409:8087:5e00:24::1e]:6060/200000001898/460000089800010212/1.m3u8
CCTV-4 中文国际,http://[2409:8087:1a01:df::7005]:80/ottrrs.hl.chinamobile.com/PLTV/88888888/224/3221226428/index.m3u8
CCTV-4 中文国际,http://[2409:8087:5e01:34::23]:6610/ZTE_CMS/00000001000000060000000000000485/index.m3u8?IAS
CCTV-4 中文国际,http://[2409:8087:5e00:24::1e]:6060/200000001898/460000089800010017/1.m3u8
CCTV-5 体育,http://[2409:8087:1a01:df::4077]:80/ottrrs.hl.chinamobile.com/PLTV/88888888/224/3221226019/index.m3u8
CCTV-5 体育,http://[2409:8087:5e00:24::1e]:6060/200000001898/460000089800010139/1.m3u8
CCTV-5+ 体育赛事,http://[2409:8087:1a01:df::4077]:80/PLTV/88888888/224/3221225507/index.m3u8
CCTV-5+ 体育赛事,http://[2409:8087:5e01:34::22]:6610/ZTE_CMS/00000001000000060000000000000132/index.m3u8?IAS
CCTV-5+ 体育赛事,http://[2409:8087:5e00:24::1e]:6060/200000001898/460000089800010202/1.m3u8
CCTV-6 电影,http://[2409:8087:1a01:df::4077]:80/ottrrs.hl.chinamobile.com/PLTV/88888888/224/3221226010/index.m3u8
CCTV-6 电影,http://[2409:8087:5e00:24::1e]:6060/200000001898/460000089800010214/1.m3u8
CCTV-7 国防军事,http://[2409:8087:1a01:df::7005]:80/ottrrs.hl.chinamobile.com/PLTV/88888888/224/3221225733/index.m3u8
CCTV-7 国防军事,http://[2409:8087:5e01:34::22]:6610/ZTE_CMS/00000001000000060000000000000380/index.m3u8?IAS
CCTV-7 国防军事,http://[2409:8087:5e00:24::1e]:6060/200000001898/460000089800010215/1.m3u8
CCTV-8 电视剧,http://[2409:8087:1a01:df::4077]:80/ottrrs.hl.chinamobile.com/PLTV/88888888/224/3221226008/index.m3u8
CCTV-8 电视剧,http://[2409:8087:5e00:24::1e]:6060/200000001898/460000089800010216/1.m3u8
CCTV-9 纪录,http://[2409:8087:1a01:df::4077]:80/ottrrs.hl.chinamobile.com/PLTV/88888888/224/3221225734/index.m3u8
CCTV-9 纪录,http://[2409:8087:5e01:34::20]:6610/ZTE_CMS/00000001000000060000000000000373/index.m3u8?IAS
CCTV-9 纪录,http://[2409:8087:5e00:24::1e]:6060/200000001898/460000089800010052/1.m3u8
CCTV-10 科教,http://[2409:8087:1a01:df::4077]:80/PLTV/88888888/224/3221225677/index.m3u8
CCTV-10 科教,http://[2409:8087:5e01:34::20]:6610/ZTE_CMS/00000001000000060000000000000375/index.m3u8?IAS
CCTV-10 科教,http://[2409:8087:5e00:24::1e]:6060/200000001898/460000089800010203/1.m3u8
CCTV-11 戏曲,http://[2409:8087:1a01:df::7005]:80/ottrrs.hl.chinamobile.com/PLTV/88888888/224/3221226565/index.m3u8
CCTV-11 戏曲,http://[2409:8087:5e01:34::23]:6610/ZTE_CMS/00000001000000060000000000000497/index.m3u8?IAS
CCTV-11 戏曲,http://[2409:8087:5e00:24::1e]:6060/200000001898/460000089800010092/1.m3u8
CCTV-12 社会与法,http://[2409:8087:1a01:df::4077]:80/ottrrs.hl.chinamobile.com/PLTV/88888888/224/3221225731/index.m3u8
CCTV-12 社会与法,http://[2409:8087:5e01:34::20]:6610/ZTE_CMS/00000001000000060000000000000377/index.m3u8?IAS
CCTV-12 社会与法,http://[2409:8087:5e00:24::1e]:6060/200000001898/460000089800010205/1.m3u8
CCTV-13 新闻,http://[2409:8087:1a01:df::7005]:80/ottrrs.hl.chinamobile.com/PLTV/88888888/224/3221226537/index.m3u8
CCTV-13 新闻,http://[2409:8087:5e01:34::22]:6610/ZTE_CMS/00000001000000060000000000000516/index.m3u8?IAS
CCTV-13 新闻,http://[2409:8087:5e00:24::1e]:6060/200000001898/460000089800010093/1.m3u8
CCTV-14 少儿,http://[2409:8087:1a01:df::4077]:80/ottrrs.hl.chinamobile.com/PLTV/88888888/224/3221225732/index.m3u8
CCTV-14 少儿,http://[2409:8087:5e01:34::23]:6610/ZTE_CMS/00000001000000060000000000000378/index.m3u8?IAS
CCTV-14 少儿,http://[2409:8087:5e00:24::1e]:6060/200000001898/460000089800010207/1.m3u8
CCTV-15 音乐,http://[2409:8087:1a01:df::7005]:80/ottrrs.hl.chinamobile.com/PLTV/88888888/224/3221226476/index.m3u8
CCTV-15 音乐,http://[2409:8087:5e01:34::20]:6610/ZTE_CMS/00000001000000060000000000000501/index.m3u8?IAS
CCTV-15 音乐,http://[2409:8087:5e00:24::1e]:6060/200000001898/460000089800010094/1.m3u8
CCTV-16 奥林匹克,http://[2409:8087:1a01:df::4077]:80/PLTV/88888888/224/3221225893/index.m3u8
CCTV-16 奥林匹克,http://[2409:8087:1a01:df::7005]:80/ottrrs.hl.chinamobile.com/PLTV/88888888/224/3221226100/index.m3u8
CCTV-16 奥林匹克,http://[2409:8087:5e00:24::1e]:6060/200000001898/460000089800010142/1.m3u8
CCTV-17 农业农村,http://[2409:8087:1a01:df::7005]:80/ottrrs.hl.chinamobile.com/PLTV/88888888/224/3221225765/index.m3u8
CCTV-17 农业农村,http://[2409:8087:5e01:34::22]:6610/ZTE_CMS/00000001000000060000000000000494/index.m3u8?IAS
CCTV-17 农业农村,http://[2409:8087:5e00:24::1e]:6060/200000001898/460000089800010210/1.m3u8
CCTV-4K 超高清,http://27.222.3.214/liveali-tp4k.cctv.cn/live/4K10M.stream/playlist.m3u8
CCTV-8K 超高清,https://tv.cry33.com/ys4k.php?id=8k
CGTN英语,http://live.cgtn.com/1000/prog_index.m3u8
CGTN记录,http://[2409:8087:5e01:34::20]:6610/ZTE_CMS/00000001000000060000000000000528/index.m3u8?IAS
CGTN记录,https://news.cgtn.com/resource/live/document/cgtn-doc.m3u8
CCTV-1 综合,https://pi.0472.org/live/cctv1.m3u8?token=162210
CCTV-2 财经,https://pi.0472.org/live/cctv2.m3u8?token=162210
CCTV-3 综艺,https://pi.0472.org/live/cctv3.m3u8?token=162210
CCTV-4 国际,https://pi.0472.org/live/cctv4.m3u8?token=162210
CCTV-5 体育,https://pi.0472.org/live/cctv5.m3u8?token=162210
CCTV-5+ 体育赛事,https://pi.0472.org/live/cctv5p.m3u8?token=162210
CCTV-6 电影,https://pi.0472.org/live/cctv6.m3u8?token=162210
CCTV-7 国防军事,https://pi.0472.org/live/cctv7.m3u8?token=162210
CCTV-8 电视剧,https://pi.0472.org/live/cctv8.m3u8?token=162210
CCTV-9 记录,https://pi.0472.org/live/cctv9.m3u8?token=162210
CCTV-10 科教,https://pi.0472.org/live/cctv10.m3u8?token=162210
CCTV-11 戏曲,https://pi.0472.org/live/cctv11.m3u8?token=162210
CCTV-12 社会与法,https://pi.0472.org/live/cctv12.m3u8?token=162210
CCTV-13 新闻,https://pi.0472.org/live/cctv13.m3u8?token=162210
CCTV-14 少儿,https://pi.0472.org/live/cctv14.m3u8?token=162210
CCTV-15 音乐,https://pi.0472.org/live/cctv15.m3u8?token=162210
CCTV-16 奥林匹克,https://pi.0472.org/live/cctv16.m3u8?token=162210
CCTV-16 奥林匹克4K,https://pi.0472.org/live/cctv16-4k.m3u8?token=162210
CCTV-17 农业农村,https://pi.0472.org/live/cctv17.m3u8?token=162210
CCTV-4K 超高清,https://pi.0472.org/live/cctv4k.m3u8?token=162210
CCTV-8K 超高清,https://pi.0472.org/live/cctv8k.m3u8?token=162210
CCTV兵器科技,https://pi.0472.org/live/bqkj.m3u8?token=162210
CCTV第一剧场,https://pi.0472.org/live/dyjc.m3u8?token=162210
CCTV怀旧剧场,https://pi.0472.org/live/hjjc.m3u8?token=162210
CCTV风云剧场,https://pi.0472.org/live/fyjc.m3u8?token=162210
CCTV风云音乐,https://pi.0472.org/live/fyyy.m3u8?token=162210
CCTV风云足球,https://pi.0472.org/live/fyzq.m3u8?token=162210
CCTV电视指南,https://pi.0472.org/live/dszn.m3u8?token=162210
CCTV女性时尚,https://pi.0472.org/live/nxss.m3u8?token=162210
CCTV央视文化精品,https://pi.0472.org/live/whjp.m3u8?token=162210
CCTV世界地理,https://pi.0472.org/live/sjdl.m3u8?token=162210
CCTV高尔夫网球,https://pi.0472.org/live/gefwq.m3u8?token=162210
CCTV央视台球,https://pi.0472.org/live/ystq.m3u8?token=162210
CCTV卫生健康,https://pi.0472.org/live/wsjk.m3u8?token=162210
CGTN英语,https://pi.0472.org/live/cgtn.m3u8?token=162210
CGTN纪录,https://pi.0472.org/live/cgtnjl.m3u8?token=162210
CGTN西语,https://pi.0472.org/live/cgtne.m3u8?token=162210
CGTN法语,https://pi.0472.org/live/cgtnf.m3u8?token=162210
CGTN阿语,https://pi.0472.org/live/cgtna.m3u8?token=162210
CGTN俄语,https://pi.0472.org/live/cgtnr.m3u8?token=162210

卫视,#genre#
凤凰中文,http://play-flive.ifeng.com/live/06OLEGEGM4G.m3u8
凤凰资讯,http://play-flive.ifeng.com/live/06OLEEWQKN4.m3u8
凤凰资讯,http://113.64.145.91:8081/hls/36/index.m3u8
凤凰香港,http://113.64.145.91:8081/hls/38/index.m3u8
凤凰香港,https://epg.pw/stream/5f16dc7fc8aaaed3205516c63e4a8c24bca9dbba1181684244729cf574505b0e.m3u8
深圳卫视,http://[2409:8087:1a01:df::7005]:80/ottrrs.hl.chinamobile.com/PLTV/88888888/224/3221226313/index.m3u8
深圳卫视,http://[2409:8087:5e00:24::1e]:6060/200000001898/460000089800010068/1.m3u8
重庆卫视,http://[2409:8087:1a01:df::7005]:80/ottrrs.hl.chinamobile.com/PLTV/88888888/224/3221226409/index.m3u8
重庆卫视,http://[2409:8087:5e00:24::1e]:6060/200000001898/460000089800010053/1.m3u8
广东卫视,http://[2409:8087:1a01:df::7005]:80/ottrrs.hl.chinamobile.com/PLTV/88888888/224/3221226248/index.m3u8
广东卫视,http://[2409:8087:5e00:24::1e]:6060/200000001898/460000089800010055/1.m3u8
北京卫视,http://[2409:8087:1a01:df::7005]:80/ottrrs.hl.chinamobile.com/PLTV/88888888/224/3221226450/index.m3u8
北京卫视,http://[2409:8087:5e00:24::1e]:6060/200000001898/460000089800010143/1.m3u8
湖南卫视,http://[2409:8087:1a01:df::7005]:80/ottrrs.hl.chinamobile.com/PLTV/88888888/224/3221226307/index.m3u8
湖南卫视,http://[2409:8087:5e00:24::1e]:6060/200000001898/460000089800010058/1.m3u8
东方卫视,http://[2409:8087:1a01:df::7005]:80/ottrrs.hl.chinamobile.com/PLTV/88888888/224/3221226345/index.m3u8
东方卫视,http://[2409:8087:5e00:24::1e]:6060/200000001898/460000089800010054/1.m3u8
四川卫视,http://[2409:8087:1a01:df::7005]:80/ottrrs.hl.chinamobile.com/PLTV/88888888/224/3221226338/index.m3u8
四川卫视,http://[2409:8087:1a0b:df::4020]:80/ottrrs.hl.chinamobile.com/PLTV/88888888/224/3221226338/index.m3u8
四川卫视,http://[2409:8087:5e00:24::1e]:6060/200000001898/460000089800010115/1.m3u8
天津卫视,http://[2409:8087:1a01:df::7005]:80/ottrrs.hl.chinamobile.com/PLTV/88888888/224/3221226459/index.m3u8
天津卫视,http://[2409:8087:5e00:24::1e]:6060/200000001898/460000089800010069/1.m3u8
安徽卫视,http://[2409:8087:1a01:df::7005]:80/ottrrs.hl.chinamobile.com/PLTV/88888888/224/3221226391/index.m3u8
安徽卫视,http://[2409:8087:5e00:24::1e]:6060/200000001898/460000089800010041/1.m3u8
山东卫视,http://[2409:8087:1a01:df::7005]:80/ottrrs.hl.chinamobile.com/PLTV/88888888/224/3221226456/index.m3u8
山东卫视,http://[2409:8087:5e00:24::1e]:6060/200000001898/460000089800010066/1.m3u8
广西卫视,http://[2409:8087:1a01:df::7005]:80/ottrrs.hl.chinamobile.com/PLTV/88888888/224/3221226549/index.m3u8
广西卫视,http://[2409:8087:5e00:24::1e]:6060/200000001898/460000089800010099/1.m3u8
江苏卫视,http://[2409:8087:1a01:df::7005]:80/ottrrs.hl.chinamobile.com/PLTV/88888888/224/3221226310/index.m3u8
江苏卫视,http://[2409:8087:5e00:24::1e]:6060/200000001898/460000089800010059/1.m3u8
江西卫视,http://[2409:8087:1a01:df::7005]:80/ottrrs.hl.chinamobile.com/PLTV/88888888/224/3221226344/index.m3u8
江西卫视,http://[2409:8087:5e00:24::1e]:6060/200000001898/460000089800010060/1.m3u8
河北卫视,http://[2409:8087:1a01:df::7005]:80/ottrrs.hl.chinamobile.com/PLTV/88888888/224/3221226406/index.m3u8
河北卫视,http://[2409:8087:5e00:24::1e]:6060/200000001898/460000089800010101/1.m3u8
河南卫视,http://[2409:8087:1a01:df::7005]:80/ottrrs.hl.chinamobile.com/PLTV/88888888/224/3221226480/index.m3u8
浙江卫视,http://[2409:8087:1a01:df::7005]:80/ottrrs.hl.chinamobile.com/PLTV/88888888/224/3221226339/index.m3u8
浙江卫视,http://[2409:8087:5e00:24::1e]:6060/200000001898/460000089800010070/1.m3u8
海南卫视,http://[2409:8087:1a01:df::7005]:80/ottrrs.hl.chinamobile.com/PLTV/88888888/224/3221226465/index.m3u8
湖北卫视,http://[2409:8087:1a01:df::7005]:80/ottrrs.hl.chinamobile.com/PLTV/88888888/224/3221226477/index.m3u8
湖北卫视,http://[2409:8087:5e00:24::1e]:6060/200000001898/460000089800010057/1.m3u8
山西卫视,http://[2409:8087:5e01:34::21]:6610/ZTE_CMS/00000001000000060000000000000318/index.m3u8?IAS
东南卫视,http://[2409:8087:1a01:df::7005]:80/ottrrs.hl.chinamobile.com/PLTV/88888888/224/3221226341/index.m3u8
东南卫视,http://[2409:8087:1a01:df::4077]:80/PLTV/88888888/224/3221225950/index.m3u8
东南卫视,http://[2409:8087:5e00:24::1e]:6060/200000001898/460000089800010096/1.m3u8
贵州卫视,http://[2409:8087:1a01:df::7005]:80/ottrrs.hl.chinamobile.com/PLTV/88888888/224/3221226474/index.m3u8
贵州卫视,http://[2409:8087:5e00:24::1e]:6060/200000001898/460000089800010100/1.m3u8
辽宁卫视,http://[2409:8087:1a01:df::7005]:80/ottrrs.hl.chinamobile.com/PLTV/88888888/224/3221226546/index.m3u8
辽宁卫视,http://[2409:8087:5e00:24::1e]:6060/200000001898/460000089800010061/1.m3u8
黑龙江卫视,http://[2409:8087:1a01:df::7005]:80/ottrrs.hl.chinamobile.com/PLTV/88888888/224/3221226327/index.m3u8
黑龙江卫视,http://[2409:8087:5e00:24::1e]:6060/200000001898/460000089800010056/1.m3u8
内蒙古卫视,http://[2409:8087:5e01:34::20]:6610/ZTE_CMS/00000001000000060000000000000319/index.m3u8?IAS
宁夏卫视,http://[2409:8087:5e01:34::20]:6610/ZTE_CMS/00000001000000060000000000000309/index.m3u8?IAS
陕西卫视,http://[2409:8087:5e01:34::22]:6610/ZTE_CMS/00000001000000060000000000000313/index.m3u8?IAS
甘肃卫视,http://[2409:8087:1a0b:df::4005]:80/ottrrs.hl.chinamobile.com/PLTV/88888888/224/3221225633/index.m3u8
甘肃卫视,http://[2409:8087:5e00:24::1e]:6060/200000001898/460000089800010098/1.m3u8
吉林卫视,http://[2409:8087:1a01:df::7005]:80/ottrrs.hl.chinamobile.com/PLTV/88888888/224/3221226397/index.m3u8
云南卫视,http://[2409:8087:5e01:34::22]:6610/ZTE_CMS/00000001000000060000000000000305/index.m3u8?IAS
云南卫视,http://[2409:8087:5e00:24::1e]:6060/200000001898/460000089800010119/1.m3u8
三沙卫视,http://[2409:8087:5e01:34::21]:6610/ZTE_CMS/08984400000000060000000000000319/index.m3u8?IAS
青海卫视,http://[2409:8087:1a0b:df::4002]:80/ottrrs.hl.chinamobile.com/PLTV/88888888/224/3221225628/index.m3u8
青海卫视,http://[2409:8087:7000:20:1000::22]:6060/000000001000/1000000002000013359/index.m3u8
青海卫视,http://[2409:8087:5e00:24::1e]:6060/200000001898/460000089800010111/1.m3u8
新疆卫视,http://[2409:8087:1a0b:df::4005]:80/ottrrs.hl.chinamobile.com/PLTV/88888888/224/3221225635/index.m3u8
新疆卫视,http://[2409:8087:5e01:34::23]:6610/ZTE_CMS/00000001000000060000000000000316/index.m3u8?IAS
西藏卫视,http://[2409:8087:5e01:34::23]:6610/ZTE_CMS/00000001000000060000000000000317/index.m3u8?IAS
兵团卫视,http://[2409:8087:1a0b:df::4020]:80/ottrrs.hl.chinamobile.com/PLTV/88888888/224/3221226439/index.m3u8
延边卫视,http://[2409:8087:1a0b:df::4020]:80/ottrrs.hl.chinamobile.com/PLTV/88888888/224/3221226516/index.m3u8
大湾区卫视,http://[2409:8087:1a0b:df::4020]:80/ottrrs.hl.chinamobile.com/PLTV/88888888/224/3221226442/index.m3u8
安多卫视,http://[2409:8087:1a0b:df::4007]:80/ottrrs.hl.chinamobile.com/PLTV/88888888/224/3221225659/index.m3u8
安多卫视,http://[2409:8087:7004:20:1000::22]:6610/yinhe/2/ch00000090990000001311/index.m3u8?virtualDomain=yinhe.live_hls.zte.com
厦门卫视,http://[2409:8087:5e01:34::22]:6610/ZTE_CMS/00000001000000060000000000000193/index.m3u8?IAS
康巴卫视,http://[2409:8087:1a0b:df::4005]:80/ottrrs.hl.chinamobile.com/PLTV/88888888/224/3221225660/index.m3u8
CETV-1,http://[2409:8087:1a0b:df::4020]:80/ottrrs.hl.chinamobile.com/PLTV/88888888/224/3221225652/index.m3u8
CETV-2,http://[2409:8087:1a0b:df::4013]:80/ottrrs.hl.chinamobile.com/PLTV/88888888/224/3221226425/index.m3u8
CETV-3,http://[2409:8087:7004:20:1000::22]:6610/yinhe/2/ch00000090990000001309/index.m3u8?virtualDomain=yinhe.live_hls.zte.com
CETV-4,http://[2409:8087:1a0b:df::4020]:80/ottrrs.hl.chinamobile.com/PLTV/88888888/224/3221225783/index.m3u8
爱上4K,http://[2409:8087:5e01:34::23]:6610/ZTE_CMS/00000001000000060000000000000459/index.m3u8?IAS
纪实人文,http://[2409:8087:1a01:df::7005]:80/ottrrs.hl.chinamobile.com/PLTV/88888888/224/3221225738/index.m3u8
纪实科教,http://[2409:8087:1a01:df::7005]:80/ottrrs.hl.chinamobile.com/PLTV/88888888/224/3221225729/index.m3u8
纪实科教,http://[2409:8087:5e00:24::1e]:6060/200000001898/460000089800010042/1.m3u8
卡酷少儿,http://[2409:8087:1a0b:df::4020]:80/ottrrs.hl.chinamobile.com/PLTV/88888888/224/3221225654/index.m3u8
卡酷少儿,http://[2409:8087:5e00:24::1e]:6060/200000001898/460000089800010081/1.m3u8
金鹰卡通,http://[2409:8087:1a0b:df::4008]:80/ottrrs.hl.chinamobile.com/PLTV/88888888/224/3221225653/index.m3u8
金鹰卡通,http://[2409:8087:4c0a:22:1::11]:6410/170000001115/UmaiCHAN6000057BESTVSMGSMG/index.m3u8?AuthInfo=9kOOdBn7MFF%2F2bWjKgahUTWDyIgRkFJBAHMhA2ayG0T0ZQXwaiVktPr6ILPKXqwOw2VoxnxHvBSRSzCCC3szSwIgrD0rUpRXeaqChwLXCf0
金鹰卡通,http://[2409:8087:5e00:24::1e]:6060/200000001898/460000089800010107/1.m3u8
哒啵赛事,http://[2409:8087:1a01:df::7005]:80/ottrrs.hl.chinamobile.com/PLTV/88888888/224/3221225675/index.m3u8
哒啵赛事,http://[2409:8087:5e00:24::1e]:6060/200000001898/460000089800010125/1.m3u8
优漫卡通,http://[2409:8087:1a0b:df::4005]:80/ottrrs.hl.chinamobile.com/PLTV/88888888/224/3221225656/index.m3u8
优漫卡通,http://[2409:8087:5e00:24::1e]:6060/200000001898/460000089800010118/1.m3u8
哈哈炫动,http://[2409:8087:1a0b:df::4001]:80/ottrrs.hl.chinamobile.com/PLTV/88888888/224/3221225657/index.m3u8
哈哈炫动,http://[2409:8087:5e00:24::1e]:6060/200000001898/460000089800010117/1.m3u8
黑莓动画,http://[2409:8087:1a0b:df::4006]:80/ottrrs.hl.chinamobile.com/PLTV/88888888/224/3221225662/index.m3u8
黑莓动画,http://[2409:8087:5e00:24::1e]:6060/200000001898/460000089800010002/1.m3u8
黑莓电影,http://[2409:8087:1a0b:df::4014]:80/ottrrs.hl.chinamobile.com/PLTV/88888888/224/3221225743/index.m3u8
黑莓电影,http://[2409:8087:5e00:24::1e]:6060/200000001898/460000089800010073/1.m3u8
超级体育,http://[2409:8087:1a01:df::7005]:80/ottrrs.hl.chinamobile.com/PLTV/88888888/224/3221225715/index.m3u8
超级体育,http://[2409:8087:5e00:24::1e]:6060/200000001898/460000089800010063/1.m3u8
超级电影,http://[2409:8087:1a01:df::7005]:80/ottrrs.hl.chinamobile.com/PLTV/88888888/224/3221225717/index.m3u8
超级电影,http://[2409:8087:5e00:24::1e]:6060/200000001898/460000089800010064/1.m3u8
超级视剧,http://[2409:8087:1a01:df::7005]:80/ottrrs.hl.chinamobile.com/PLTV/88888888/224/3221225716/index.m3u8
东北热剧,http://[2409:8087:1a01:df::7005]:80/ottrrs.hl.chinamobile.com/PLTV/88888888/224/3221225741/index.m3u8
东北热剧,http://[2409:8087:5e00:24::1e]:6060/200000001898/460000089800010021/1.m3u8
海外剧场,http://[2409:8087:1a0b:df::4005]:80/ottrrs.hl.chinamobile.com/PLTV/88888888/224/3221225671/index.m3u8
中国功夫,http://[2409:8087:1a0b:df::4001]:80/ottrrs.hl.chinamobile.com/PLTV/88888888/224/3221225681/index.m3u8
中国功夫,http://[2409:8087:5e00:24::1e]:6060/200000001898/460000089800010087/1.m3u8
军旅剧场,http://[2409:8087:1a0b:df::4018]:80/ottrrs.hl.chinamobile.com/PLTV/88888888/224/3221225676/index.m3u8
军旅剧场,http://[2409:8087:5e00:24::1e]:6060/200000001898/460000089800010079/1.m3u8
惊悚悬疑,http://[2409:8087:1a0b:df::4002]:80/ottrrs.hl.chinamobile.com/PLTV/88888888/224/3221225665/index.m3u8
惊悚悬疑,http://[2409:8087:5e00:24::1e]:6060/200000001898/460000089800010077/1.m3u8
潮妈辣婆,http://[2409:8087:1a0b:df::4007]:80/ottrrs.hl.chinamobile.com/PLTV/88888888/224/3221225685/index.m3u8
潮妈辣婆,http://[2409:8087:5e00:24::1e]:6060/200000001898/460000089800010005/1.m3u8
精品体育,http://[2409:8087:1a0b:df::4004]:80/ottrrs.hl.chinamobile.com/PLTV/88888888/224/3221225674/index.m3u8
精品体育,http://[2409:8087:5e00:24::1e]:6060/200000001898/460000089800010078/1.m3u8
精品纪录,http://[2409:8087:1a0b:df::4007]:80/ottrrs.hl.chinamobile.com/PLTV/88888888/224/3221225672/index.m3u8
精品纪录,http://[2409:8087:5e00:24::1e]:6060/200000001898/460000089800010076/1.m3u8
家庭剧场,http://[2409:8087:1a0b:df::4007]:80/ottrrs.hl.chinamobile.com/PLTV/88888888/224/3221225677/index.m3u8
家庭剧场,http://[2409:8087:5e00:24::1e]:6060/200000001898/460000089800010074/1.m3u8
精品大剧,http://[2409:8087:1a0b:df::4001]:80/ottrrs.hl.chinamobile.com/PLTV/88888888/224/3221225670/index.m3u8
精品大剧,http://[2409:8087:5e00:24::1e]:6060/200000001898/460000089800010072/1.m3u8
军事评论,http://[2409:8087:1a0b:df::4005]:80/ottrrs.hl.chinamobile.com/PLTV/88888888/224/3221225668/index.m3u8
军事评论,http://[2409:8087:5e00:24::1e]:6060/200000001898/460000089800010080/1.m3u8
明星大片,http://[2409:8087:1a0b:df::4005]:80/ottrrs.hl.chinamobile.com/PLTV/88888888/224/3221225664/index.m3u8
欢乐剧场,http://[2409:8087:1a01:df::7005]:80/ottrrs.hl.chinamobile.com/PLTV/88888888/224/3221225742/index.m3u8
欢乐剧场,http://[2409:8087:5e00:24::1e]:6060/200000001898/460000089800010025/1.m3u8
精品萌宠,http://[2409:8087:1a01:df::7005]:80/ottrrs.hl.chinamobile.com/PLTV/88888888/224/3221226505/index.m3u8
精品萌宠,http://[2409:8087:5e00:24::1e]:6060/200000001898/460000089800010146/1.m3u8
超级综艺,http://[2409:8087:1a01:df::7005]:80/ottrrs.hl.chinamobile.com/PLTV/88888888/224/3221225714/index.m3u8
超级综艺,http://[2409:8087:5e00:24::1e]:6060/200000001898/460000089800010062/1.m3u8
金牌综艺,http://[2409:8087:1a01:df::7005]:80/ottrrs.hl.chinamobile.com/PLTV/88888888/224/3221225666/index.m3u8
金牌综艺,http://[2409:8087:5e00:24::1e]:6060/200000001898/460000089800010086/1.m3u8
北京卫视,https://pi.0472.org/live/bjws.m3u8?token=162210
东方卫视,https://pi.0472.org/live/dfws.m3u8?token=162210
天津卫视,https://pi.0472.org/live/tjws.m3u8?token=162210
重庆卫视,https://pi.0472.org/live/cqws.m3u8?token=162210
黑龙江卫视,https://pi.0472.org/live/hljws.m3u8?token=162210
辽宁卫视,https://pi.0472.org/live/lnws.m3u8?token=162210
河北卫视,https://pi.0472.org/live/hbws.m3u8?token=162210
山东卫视,https://pi.0472.org/live/sdws.m3u8?token=162210
安徽卫视,https://pi.0472.org/live/ahws.m3u8?token=162210
河南卫视,https://pi.0472.org/live/hnws.m3u8?token=162210
湖北卫视,https://pi.0472.org/live/hubws.m3u8?token=162210
湖南卫视,https://pi.0472.org/live/hunws.m3u8?token=162210
江西卫视,https://pi.0472.org/live/jxws.m3u8?token=162210
江苏卫视,https://pi.0472.org/live/jsws.m3u8?token=162210
浙江卫视,https://pi.0472.org/live/zjws.m3u8?token=162210
东南卫视,https://pi.0472.org/live/dnws.m3u8?token=162210
广东卫视,https://pi.0472.org/live/gdws.m3u8?token=162210
深圳卫视,https://pi.0472.org/live/szws.m3u8?token=162210
广西卫视,https://pi.0472.org/live/gxws.m3u8?token=162210
贵州卫视,https://pi.0472.org/live/gzws.m3u8?token=162210
四川卫视,https://pi.0472.org/live/scws.m3u8?token=162210
新疆卫视,https://pi.0472.org/live/xjws.m3u8?token=162210
海南卫视,https://pi.0472.org/live/hinws.m3u8?token=162210

港•澳•台,#genre#
BBC Lifestyle,P2p://generationnexxxt.com:19806/213ee36f11ba4b9896c8440290ebca3b
民视,P2p://generationnexxxt.com:19806/e85920ffa4de4c2cbab08ad68fd1d5ae
台视,P2p://generationnexxxt.com:19806/333435199f804b03aad4410d4674aaeb
Lifetime,P2p://generationnexxxt.com:19806/7d5e25a5a50c47c3b6853d45f9f54d63
大爱,P2p://generationnexxxt.com:19806/3a1fb2af7f384a148c57899bb1b50dfb
KLT-靖天国际台,P2p://generationnexxxt.com:19806/924e7a65eec84eddade5f03c3d5ebb37
中视,P2p://generationnexxxt.com:19806/695746eb4c094292a862a53216d54dac
霹雳台湾台,P2p://generationnexxxt.com:19806/0e3ab414dfb34fccb76d20665cd03da4
HGTV居家乐活频道,P2p://generationnexxxt.com:19806/695f8cb90c384faaa0a6253d92e35176
华视,P2p://generationnexxxt.com:19806/2ebe6c2c5cfd454ebdc30acc44e683d7
Love Nature,P2p://generationnexxxt.com:19806/95909f6c10614748a8d824e33bdfaad0
公视,P2p://generationnexxxt.com:19806/345c7e0b5a7545cfacafed5319da0351
美食星球,P2p://generationnexxxt.com:19806/02a89e372e1344d0b74c5b288d4d1cea
亚洲美食频道,P2p://generationnexxxt.com:19806/ac7e749ef27c4f2c8775ecaae5cd2206
好消息,P2p://generationnexxxt.com:19806/4d0ca895f6d94917a6d24019ab13bd5a
亚洲旅游台,P2p://generationnexxxt.com:19806/409459f958a04a5fa3609250df421445
EYE TV旅游台,P2p://generationnexxxt.com:19806/49931b62c0b34671af7cce9d0842ede8
原住民电视台,P2p://generationnexxxt.com:19806/97025f4b61624e4498cf89ac22dc2120
好消息2台,P2p://generationnexxxt.com:19806/75d2c136059342dca8535905bdbd3c19
三立综合台,P2p://generationnexxxt.com:19806/a29710ab6188439f8cfaf83e5268ac06
靖天资讯台,P2p://generationnexxxt.com:19806/f412c238a0594d74a72da81118a27f98
靖天综合台,P2p://generationnexxxt.com:19806/9617767eac9b4ce792a24a442e821b13
靖天育乐台,P2p://generationnexxxt.com:19806/056c144c71cc4b58be94ec2b1bc6409d
中视经典台,P2p://generationnexxxt.com:19806/b0fa86c1552742ffb1e5b79fcc2a9f5e
中视菁采台,P2p://generationnexxxt.com:19806/abf4b02e6c7d408ebc9947ae5b2e11c3
客家电视台,P2p://generationnexxxt.com:19806/12c8600cdaec420b96693e6cf2e37f67
TVBS精采台,P2p://generationnexxxt.com:19806/0af9c12ec2a347b9b626002b0d10f37c
壹电视综合,P2p://generationnexxxt.com:19806/cf21d5f3323f485b81fd561e01ddb505
纬来精采,P2p://generationnexxxt.com:19806/28427e22e6804e4a8ebd65671e789376
ETtoday综合台,P2p://generationnexxxt.com:19806/760bcd80b88c4fefa052bef73e87c234
台视综合台,P2p://generationnexxxt.com:19806/b8121a70de4c4ce1aa94361a1689297a
民视第一台,P2p://generationnexxxt.com:19806/c29c4ad3a69749f4908e9ae4cab91032
民视台湾台,P2p://generationnexxxt.com:19806/38f827cbd65f4fd8af9c173dc13f6cc7
Nice TV靖天欢乐台,P2p://generationnexxxt.com:19806/292ac060fb694ab6bab52a705abd0444
探索频道,P2p://generationnexxxt.com:19806/c7afe2fe39a04c1dada51462430dce8a
八大优频道,P2p://generationnexxxt.com:19806/108382b44b1d4a45ae635297d23a4b61
三立戏剧台,P2p://generationnexxxt.com:19806/3e3919a7f09443d1b07bdea99f22e42f
龙华戏剧,P2p://generationnexxxt.com:19806/b3526dee03424c8090e6d4d5e787c56b
靖天戏剧台,P2p://generationnexxxt.com:19806/08786346511f4fbbbbfe0c4e72ad9409
靖洋戏剧台,P2p://generationnexxxt.com:19806/0089fb08f1b448b99c18ce438a9f7fc5
靖天日本台,P2p://generationnexxxt.com:19806/a3d3573d8c2543bd81a38c0cf885f56d
i-Fun动漫台,P2p://generationnexxxt.com:19806/5e4556e2a12846c5bedb721c6b5ff1c3
TLC旅游生活,P2p://generationnexxxt.com:19806/32000d7eec2049c6b1de2eb8cd3c9348
韩国娱乐台,P2p://generationnexxxt.com:19806/8f28b72b74e64314b3b36973f682d021
达文西频道,P2p://generationnexxxt.com:19806/170c28c8132b4ce183b4fbf61537dcff
动物星球,P2p://generationnexxxt.com:19806/b165132a770741bcac023d15750067d3
ROCK Extreme,P2p://generationnexxxt.com:19806/337165af094e40b48fb6db958ffd1cdc
中视新闻台,P2p://generationnexxxt.com:19806/75f4ea0339f14b62b1df49ede1723daa
寰宇新闻台,P2p://generationnexxxt.com:19806/33c00ed7adda475f9afe8adbd600bd9a
华视新闻,P2p://generationnexxxt.com:19806/ad4759ce4ff244efaa766154165e5d39
CN卡通频道,P2p://generationnexxxt.com:19806/7eb800b1540d4aab9365efc149622aa0
NHK新闻资讯台,P2p://generationnexxxt.com:19806/6dd38f99d9ca484aa3f0a2a50f60ba0f
美亚电影台HD,P2p://generationnexxxt.com:19806/6c34f21c2c634e5db469a2971a6e4ed0
龙华电影,P2p://generationnexxxt.com:19806/40368423d7dc44baaac3fbfc644ee9bf
Smart知识台,P2p://generationnexxxt.com:19806/b90dd56d139b4ef9af62cfa2a07478f8
靖天映画,P2p://generationnexxxt.com:19806/02870872a71c4d2296b35dd02d5a9973
MOMO亲子台,P2p://generationnexxxt.com:19806/e15e61548a2b4ff792b3dd6620be8139
靖天电影台,P2p://generationnexxxt.com:19806/37bdc9a3001d4081a0f0885b317d7221
WARNER TV,P2p://generationnexxxt.com:19806/3565510269ca47e2b0183ec1cdeca375
公视台语台,P2p://generationnexxxt.com:19806/2bc76898bf1043f4b7eb62fa24759e09
amc电影台,P2p://generationnexxxt.com:19806/951cecbe3fd745498d5216c042600ccf
东森幼幼台,P2p://generationnexxxt.com:19806/f426ffd2f2744109aedcfaa04fed3a6e
HBO Family,P2p://generationnexxxt.com:19806/a478d349433544c894aef4e3dc167d64
CatchPlay电影台,P2p://generationnexxxt.com:19806/6c90e32dd9b14d1f9eebb3c57a351d15
CinemaWorld,P2p://generationnexxxt.com:19806/b132ee920a4c47b284c08292e8c215f7
壹电视电影台,P2p://generationnexxxt.com:19806/8ce448f9cbae4feb805286d5b11bcf4d
纬来综合台,P2p://generationnexxxt.com:19806/9ca438ac1af6416087c98ee06bb3e512
采昌影剧台,P2p://generationnexxxt.com:19806/2f739a4b287f479bbd28c962f1eb6367
八大第一台,P2p://generationnexxxt.com:19806/ef3ddf51945a48beabd3f79eeafe8ac0
佛卫慈悲台,P2p://generationnexxxt.com:19806/61d88141c1fe4dccac7b23e365606290
八大综合台,P2p://generationnexxxt.com:19806/5bc105affae344648b1b19d46233e6e6
三立台湾台,P2p://generationnexxxt.com:19806/82c3325594cc42bcb28b18426623428e
三立都会台,P2p://generationnexxxt.com:19806/d246662584364ea6aad39cb2c7767eec
东森综合台,P2p://generationnexxxt.com:19806/96888fe237044e2e97823cc5e215e1a3
超视,P2p://generationnexxxt.com:19806/9cf45ab03b744e3696aeeb3aec844fa9
中天综合台,P2p://generationnexxxt.com:19806/3e0f75883e414bb98765c2eab11991be
中天娱乐台,P2p://generationnexxxt.com:19806/4ec900f6e5c0468db4b5f6743efa6508
东森戏剧台,P2p://generationnexxxt.com:19806/d6863286fa4a40cbbf9f93bd5c1e5733
八大戏剧台,P2p://generationnexxxt.com:19806/a5393bab3516410fb2bd81ea2329f7b3
TVBS欢乐台,P2p://generationnexxxt.com:19806/115a1e134813400abd3e49bad3af517c
纬来戏剧台,P2p://generationnexxxt.com:19806/8a65b7456abb49f0bd564d6741cd4542
高点综合台,P2p://generationnexxxt.com:19806/87ef49531c3c4f70b86874445d32ff0d
CNBC,P2p://generationnexxxt.com:19806/0c7b37b4c3254709945af2916fe4848b
Bloomberg TV,P2p://generationnexxxt.com:19806/b7a11fd04a2f4a44acdab32693edee1e
HITS,P2p://generationnexxxt.com:19806/512347b10e364e9bb4d436f495b1a8be
壹电视新闻台,P2p://generationnexxxt.com:19806/dc5cf9b6bd4a43aa973b9beea88e631b
年代新闻(备),P2p://generationnexxxt.com:19806/00b0fb08552945cbbaf718f9d815ca73
东森新闻台,P2p://generationnexxxt.com:19806/311e31668d704df7ade8a4d5e745d49b
中天新闻台,P2p://generationnexxxt.com:19806/1180a44e6cef425e826c3e798f7f3ea9
民视新闻台,P2p://generationnexxxt.com:19806/96f9b2974a86449f9a6f881b4e23ca03
三立新闻台,P2p://generationnexxxt.com:19806/27c4d09b970a447dae2ef153650b7ac1
TVBS新闻台,P2p://generationnexxxt.com:19806/53f80a10fb054d5ab0649a59980025a9
TVBS,P2p://generationnexxxt.com:19806/5fe15c41a5ed4d5f9262ee28464c45c0
东森财经新闻台,P2p://generationnexxxt.com:19806/5634f613b7f84f81a5c56a6af4311d57
非凡新闻台,P2p://generationnexxxt.com:19806/3d7f2e1d0e04407ba29c656092041b09
MOMO综合台,P2p://generationnexxxt.com:19806/bc7a77f2d1a54242a2b845916fcb726c
东森电影台,P2p://generationnexxxt.com:19806/90fe82037af64fd3bfc08879b08f3e2f
纬来电影台,P2p://generationnexxxt.com:19806/73fb2db46b6c4ec885e3709d9b7a4983
龙祥电影,P2p://generationnexxxt.com:19806/1c325d3c69ec458c852b173bf2e397a9
HBO,P2p://generationnexxxt.com:19806/ccabaebf243e4385a8f39a6abf31f8bb
东森洋片台,P2p://generationnexxxt.com:19806/29384d5c65734485903a3e592c9ef54f
AXN,P2p://generationnexxxt.com:19806/6c01776274094a4191d223378054782b
好莱坞电影台,P2p://generationnexxxt.com:19806/c4810d15af404015859a5fc5059e4716
CINEMAX,P2p://generationnexxxt.com:19806/a7ef892dc3d54789b8a29e5b8b06882e
纬来育乐台,P2p://generationnexxxt.com:19806/5c2e47cfcc864451b73783def36674bb
纬来体育台,P2p://generationnexxxt.com:19806/76e607f5f18c4561b7d5b5915897cc99
ELEVEN体育1台,P2p://generationnexxxt.com:19806/686833968d4b45319a5942827b997e59
JET综合台,P2p://generationnexxxt.com:19806/834c314a8ff844b0a9c3ea729ad8516b
国兴卫视,P2p://generationnexxxt.com:19806/341ef44c383e42aabb387120e1dade1c
Z频道,P2p://generationnexxxt.com:19806/70f52ed474e541f78682604ce0330bf2
Animax,P2p://generationnexxxt.com:19806/7c6f8a583fc24b298779528c07b8c66d
人间卫视,P2p://generationnexxxt.com:19806/6c97041f5da4437597c4f045b19b28c0
尼克儿童频道,P2p://generationnexxxt.com:19806/1d8cc2412f824c3c888a5d91d241910c
八大娱乐台,P2p://generationnexxxt.com:19806/5ca416b9a3564813893dc1033310b6ba
三立iNEWS,P2p://generationnexxxt.com:19806/6ec25b8c951a47cfb921435fb1968c16
龙华偶像,P2p://generationnexxxt.com:19806/a7b822eb3c86487b960d27a273d5e0b6
tvN,P2p://generationnexxxt.com:19806/45cb5d3ff4f842178bd262ac32891a0c
France24,P2p://generationnexxxt.com:19806/cff5534d052046bf8a4d8b2047aaa7c0
非凡商业台,P2p://generationnexxxt.com:19806/75d635caf96142a3807ed6c5f7e6240d
公视3台,P2p://generationnexxxt.com:19806/facf020d07f54fa8aef38a5c8b127758
大爱2台,P2p://generationnexxxt.com:19806/c549d8292cd14ac6a77bf310fba08b65
ELTV生活英语台,P2p://generationnexxxt.com:19806/1a430b38978a4a0698ede6f842b3a265
靖洋卡通Nice Bingo,P2p://generationnexxxt.com:19806/c7d3153e13894863a8d735c907971efd
靖天卡通台,P2p://generationnexxxt.com:19806/f55c325d0f8b4cac938804f090c50b5c
Nick Jr.,P2p://generationnexxxt.com:19806/0fdb4f78ab6f498f88c12ca5a34fffc2
Mezzo Live,P2p://generationnexxxt.com:19806/c87ec7818611487095699a6f5d65e9c4
CLASSICA 古典乐,P2p://generationnexxxt.com:19806/2671749a00774d36bd1afb569bd1edeb
爱尔达体育1台(备),P2p://generationnexxxt.com:19806/a45037ddc0734fe58e4ab3e053d811dc
爱尔达体育2台,P2p://generationnexxxt.com:19806/dc194c3738dd40448246b92172399ccd
TRACE Sport Stars,P2p://generationnexxxt.com:19806/771e966a825d4e7e8280601cb8cc1227
博斯高球,P2p://generationnexxxt.com:19806/10e28a2c31fe4fe8b3975961dec3503e
博斯高球二台,P2p://generationnexxxt.com:19806/65e1b654000ce227c9f3778a2b254b95
博斯网球台,P2p://generationnexxxt.com:19806/3ffce834097d40fa9036d0c469bafefd
博斯魅力网,P2p://generationnexxxt.com:19806/e8db82c6084a4ae2b114ea7c5403b7a2
博斯无限台,P2p://generationnexxxt.com:19806/0df5cdddf4b94ff09c04dfc4f11bcfcf
博斯无限二台,P2p://generationnexxxt.com:19806/6826c724c9c846d1bd63a204a39f106f
博斯运动,P2p://generationnexxxt.com:19806/1939cbb0de3449739f1dd5738bfa99e4
ELEVEN体育2台,P2p://generationnexxxt.com:19806/3efe7901f6354886b0c9fde9e22ebe44
智林体育台,P2p://generationnexxxt.com:19806/2eb49b88b20146879f4c2af756b30118
博斯运动二台,P2p://generationnexxxt.com:19806/9b8a1167e7484391ab3945d2dcb29170
HBO强档巨献,P2p://generationnexxxt.com:19806/7199aae1ab984d4fa9562d1babe7ba06
HBO原创巨献,P2p://generationnexxxt.com:19806/39c393cd52cb4a1b9b51a542f897570e
BBC Earth,P2p://generationnexxxt.com:19806/bfb6de1d865a44c7a78477c6a0eb0b4a
Discovery Asia,P2p://generationnexxxt.com:19806/6d031b7fba864255a10992d86da402ca
Discovery科学频道,P2p://generationnexxxt.com:19806/5eb5ac6d3cf243b69bce16ad8e841668
DMAX,P2p://generationnexxxt.com:19806/9fcdb313900f49c4b0236628fd939870
EVE,P2p://generationnexxxt.com:19806/958f90533a3f4857bd1ea3f6610f45e5
历史频道,P2p://generationnexxxt.com:19806/b43ae6d6c7264673901171201610d68c
罪案侦缉频道,P2p://generationnexxxt.com:19806/33eb3b21b71b469f9a9e0b780c615230
EYE TV戏剧台,P2p://generationnexxxt.com:19806/bffdd8e7cb994d9e80a697632cf0a40f
台视新闻台,P2p://generationnexxxt.com:19806/3e72f4e960264195b41106221611a5a7
寰宇新闻台湾台,P2p://generationnexxxt.com:19806/eca259193814499a8bea04411ffceb1e
台视财经台,P2p://generationnexxxt.com:19806/adf452cad7a246ca8ccc8301f8184c6e
纬来日本,P2p://generationnexxxt.com:19806/f975f456c2124eb78e6afaad3a9db300
爱尔达影剧台,P2p://generationnexxxt.com:19806/d2fc333d45044f419b16748a28ac19c5
民视(备),P2p://generationnexxxt.com:19806/710b3fa51d9746d982e51411e5a49400
三立台湾台(备),P2p://generationnexxxt.com:19806/82fb76c0b7d7487cb42604a970c4d2da
影迷数位电影台,P2p://generationnexxxt.com:19806/68111c16e7bc42d3bc27791997d39a4b
爱尔达体育1台,P2p://generationnexxxt.com:19806/db1725953e1d4256bcfab79f1873a727
爱尔达体育3台,P2p://generationnexxxt.com:19806/90ea1d1ed6654b5d863053cfceb050e0
台视(备),P2p://generationnexxxt.com:19806/4f26385653f04516a9f205e141fa77b2
爱尔达体育4台,P2p://generationnexxxt.com:19806/4c4be1e474784fdbbfb565b5046238f4
中视(备),P2p://generationnexxxt.com:19806/185127a48ab34a0dad54ab6e003ddeb3
华视(备),P2p://generationnexxxt.com:19806/f2790dcfba0d4f479db8ec97095579af
东森新闻台(备),P2p://generationnexxxt.com:19806/f848bf771436495b9ce252af20bea6e2
镜新闻,P2p://generationnexxxt.com:19806/65372d81bcb84ef4b76dd34a6f0e32bc
东森购物1台,P2p://generationnexxxt.com:19806/21dbc6f9b1e141f4bbda7573d9af70a9
东森购物2台,P2p://generationnexxxt.com:19806/50299f66ecb24fe1964c5c7818118527
TechStorm,P2p://generationnexxxt.com:19806/9e84e7f44550435a91e4d0d92cc0147f
年代新闻,P2p://generationnexxxt.com:19806/f8c807d770a8429da9d058b516902907
中天新闻台(B),P2p://147.135.39.171:9906/668829a300087a07bea90b34300003a6
纬来育乐台(B),P2p://generationnexxxt.com:19806/582d689b3362424fbf99541335e57ba2
纬来电影台(B),P2p://generationnexxxt.com:19806/c919ad41b4a9444bbc9fdf332a13724d
纬来综合台(B),P2p://generationnexxxt.com:19806/b936f6c565994dc88e2143be7af35c25
CINEMAX(B),P2p://generationnexxxt.com:19806/d559fe6e91584b87bff1eaeb0660c6ef
亚洲美食频道(B),P2p://generationnexxxt.com:19806/081793e8697647e5af4c70b9265cab70
美食星球(B),P2p://generationnexxxt.com:19806/603ff2b4a3b34834bbe7bbc04b6b8d78
EYE TV旅游台(B),P2p://generationnexxxt.com:19806/5b302f252b45400888768bf7dce6cf94
Animax(B),P2p://generationnexxxt.com:19806/4913cc8e4b7e490eaebbb4a081bf02b8
CinemaWorld(B),P2p://generationnexxxt.com:19806/023f59ea320a4c6e92921cefdbaa56fa
爱尔达体育1台(B),P2p://generationnexxxt.com:19806/49de700b9bd64f49b6b877f188eb7845
亚洲旅游台(B),P2p://generationnexxxt.com:19806/bc0c6c9782004039b1220b4faa8a3abf
TVBS欢乐台(B),P2p://generationnexxxt.com:19806/2f5899dbb41e4f798ef5d21862533392
高点综合台(B),P2p://generationnexxxt.com:19806/434410dec739471d9743acce6fa7db63
HBO Family(B),P2p://generationnexxxt.com:19806/e8c4b36eccf04b64aee2e9ef6b12a980
HBO强档巨献(B),P2p://generationnexxxt.com:19806/55d1f251a1cc4043b0b2a748bcd26242
HBO原创巨献(B),P2p://generationnexxxt.com:19806/03579c59806d4cd9b1b3100caacadede
amc电影台(B),P2p://generationnexxxt.com:19806/f3c27a21d7c94ce897675ac9dbcf304f
Discovery Asia(B),P2p://generationnexxxt.com:19806/65e9a59d000f257fe8f2360919064328
探索频道(B),P2p://generationnexxxt.com:19806/03803dbb35eb4e78a332b2b421b770c8
动物星球(B),P2p://generationnexxxt.com:19806/e2f475dd35c74f20b7dc33c3204beb23
三立iNEWS(B),P2p://generationnexxxt.com:19806/1d4ae63a90fa4f77b866e6f907a2c82c
霹雳台湾台(B),P2p://generationnexxxt.com:19806/28662f792e3745e6893da9c2f2f94575
BBC Earth(B),P2p://generationnexxxt.com:19806/14e78adfa4c44280a4ad715bab2532f0
BBC Lifestyle(B),P2p://generationnexxxt.com:19806/1d87116de5de48f5a94c45900b029545
影迷数位电影台(B),P2p://generationnexxxt.com:19806/953af90f5a014c74b239928d831a1480
爱尔达体育4台(B),P2p://generationnexxxt.com:19806/4e215dc71da5483bae1a0316a8c4673e
博斯高球(B),P2p://generationnexxxt.com:19806/a0b205fa58d04238b5a166760468f88a
博斯网球台(B),P2p://generationnexxxt.com:19806/2d4ebc7a69904ad795df8adc5906d3a4
博斯运动(B),P2p://generationnexxxt.com:19806/9ab4db0c2a6444f5bca41b8dca371a70
博斯无限台(B),P2p://generationnexxxt.com:19806/3f6a91a25f724acb9bc245c2eda7b04c
中天亚洲台(B),P2p://generationnexxxt.com:19806/1279f4aaa3ea4f958ed26b14f1ffeb7e
中天娱乐台(B),P2p://generationnexxxt.com:19806/ef92e3e69b334eaca20f0e2a26bf0f31
WARNER TV(B),P2p://generationnexxxt.com:19806/fcf665244a5740ebb61fcba5ef2f6cee
i-Fun动漫台(B),P2p://generationnexxxt.com:19806/6cb1867e9aa543d7938ecb9ac3605564
八大优频道(B),P2p://generationnexxxt.com:19806/18013a59708946259a859b90d07b8aac
民视第一台(B),P2p://generationnexxxt.com:19806/3a4000096c084c79af219586be8ed979
三立新闻台(B),P2p://generationnexxxt.com:19806/69427a93f58247d1a31f424cbadc6c4d
东森戏剧台(B),P2p://generationnexxxt.com:19806/4c925da5e039498a85b4d3fa0bfb5910
东森新闻台(B),P2p://generationnexxxt.com:19806/e9f96143b31a4e869309a60c27c66bc4
历史频道(B),P2p://generationnexxxt.com:19806/cf774dbea20b492db00ab609f1c43d47
爱尔达体育2台(B),P2p://generationnexxxt.com:19806/1ba2c7d7725f46a595dcb7df1741b5fb
爱尔达体育3台(B),P2p://generationnexxxt.com:19806/45f846eb465245d2aae9e7c34609f960
TVBS(B),P2p://generationnexxxt.com:19806/9e185dd6c7dd46edb5a7d675e4fca701
TVBS新闻台(B),P2p://generationnexxxt.com:19806/bb6082c57bae466b9e6c64ba43f2c1e1
年代新闻(B),P2p://generationnexxxt.com:19806/cd32e0feca2244288f8a878d7aacf0fc
非凡新闻台(B),P2p://generationnexxxt.com:19806/a404066e65af4566931c773a385ed1e3
港台电视31,P2p://generationnexxxt.com:19806/c7cd517a9e5b44a9b6037c90f998627f
港台电视32,P2p://generationnexxxt.com:19806/8ef4a2b7bac54aba8b17dfd2071df91f
HOY TV,P2p://generationnexxxt.com:19806/532d47eca340456a814ba21cc5e68a52
﻿翡翠台(备),P2p://147.135.39.171:9906/66430d4f000d5d62b0b20b3f5bac56f2
TVB Plus,P2p://generationnexxxt.com:19806/faf51cf453a84400be019b14939e49f6
无线新闻台(备),P2p://147.135.39.171:9906/66141a3d000c7a12f94c49ad085f4fe9
TVB娱乐新闻台,P2p://generationnexxxt.com:19806/e77d39049c07479ab0ff57800c6e5b06
无线新闻台,P2p://147.135.39.171:9906/665fe3b70003d98a2157b5c1769244d0
PopC,P2p://generationnexxxt.com:19806/3ae0f859370b4f17baec42495be6f043
ViuTVsix,P2p://generationnexxxt.com:19806/b6f920891ad9473ca6f839df7616f580
ViuTV,P2p://generationnexxxt.com:19806/956aa1340cd5439689da84cff7a5eaae
凤凰中文台,P2p://generationnexxxt.com:19806/64e1ab2a000417167359b3ca0417008f
凤凰资讯台,P2p://generationnexxxt.com:19806/3f7b6ed02526445e89ce536992d04ef5
凤凰香港台,P2p://generationnexxxt.com:19806/51ed8623722a469f8caa15a0e12a6761
TVB星河,P2p://generationnexxxt.com:19806/e94f4c244af8464fb06eff4c9da250a6
澳门-MACAU,P2p://generationnexxxt.com:19806/b08e564af8cf49e2a0fadaf4978a04cf
澳门莲花,P2p://generationnexxxt.com:19806/cd6e7bcddc7c4e6ea2e6d7b6dfa03ae8
HKC 18,P2p://generationnexxxt.com:19806/e38b0ea6a9174a92bf7f30a36d4e0fe9
戏曲台,P2p://generationnexxxt.com:19806/131a3f2bbae740fc982903c576a97920
翡翠台,P2p://147.135.39.171:9906/66430d4f000a06ccb0b20a650b4b5d65
千禧经典台,P2p://generationnexxxt.com:19806/b3069418cdff4c69bb544e4b1ff04d56
Thrill,P2p://generationnexxxt.com:19806/d20fff7aa7d64ab19d2a39da2970734a
明珠台,P2p://generationnexxxt.com:19806/066930b0d2764f05a9b8a0019efe82fe
now财经台,P2p://generationnexxxt.com:19806/f0dd1f92af2845c2abd2ff29aff2b8ca
美亚电影台(粤语),P2p://generationnexxxt.com:19806/81ea49b841454e1c901ac507f231a581
18台,P2p://generationnexxxt.com:19806/2cd619b81446414fb605daa1e86bebd6
HOY资讯台,P2p://generationnexxxt.com:19806/f40dc92cdc224868b83be4156ec315dc
Hands Up,P2p://generationnexxxt.com:19806/7c21e515d5264c9fa21035456fd5024a
粤语片台,P2p://generationnexxxt.com:19806/3d6644cc478648c2952a8c69cb9fccf5
亚洲剧台,P2p://generationnexxxt.com:19806/08cc25f383fd45e8b063efb2b2708dbc
功夫台,P2p://generationnexxxt.com:19806/85398bbb5112406b95c5780d36d3a173
now新闻台,P2p://generationnexxxt.com:19806/86a69c6de155405ba916819e2634aa74
香港国际财经台,P2p://generationnexxxt.com:19806/bddf0c6b88474142a2cab7219a93af54
黄金翡翠台,P2p://generationnexxxt.com:19806/1444d681fb1b44d4a20ff001c2bb2f7c
PopC(B),P2p://generationnexxxt.com:19806/63cdb28090d949ed824376fab51fdd12
翡翠台(B),P2p://generationnexxxt.com:19806/2c1ef45c2c174f5c8df4d049e1cbccfd
无线新闻台(B),P2p://generationnexxxt.com:19806/132be793de424970abd09ef9fe09db07
now财经台(B),P2p://generationnexxxt.com:19806/415e15f33f8b4b5b95a400a406abd534
TVB娱乐新闻台(B),P2p://generationnexxxt.com:19806/05e767dba8fa48e9ba386ed231c94318
明珠台(B),P2p://generationnexxxt.com:19806/6ea5ab8d22f04024b3fac9bfb2b243aa
香港国际财经台(B),P2p://generationnexxxt.com:19806/b6594fa379204fc5b11ba4bc3fe7d932
TVB星河(B),P2p://generationnexxxt.com:19806/afcbb73766d64754bd8d35fc330aae1c
澳门莲花(B),P2p://generationnexxxt.com:19806/f7ac1f0fdbe64fcc82cee29e0b590242
澳门-MACAU(B),P2p://generationnexxxt.com:19806/a2bbc4a4feec4168804624c67fdea801
黄金翡翠台(B),P2p://generationnexxxt.com:19806/99b70f5afa114465aa463db0cfed6569
ViuTVsix(B),P2p://generationnexxxt.com:19806/ea75ceca822f454bb858845559d5fc55
now新闻台(B),P2p://generationnexxxt.com:19806/b9ba3f0b06b14fe69ac2cbf51c77d816
TVB Plus(B),P2p://147.135.39.171:9906/65fd6048000be8b2a085bc4d061c504d
凤凰中文台(B),P2p://generationnexxxt.com:19806/d897c583969747fc8a362653e01faf4f
凤凰资讯台(B),P2p://generationnexxxt.com:19806/d207c4a98e784d1299a9aa63268f21c6
beIN Sports,P2p://generationnexxxt.com:19806/9215bd8182d04b67a9285f24816321df
TVB娱乐新闻台,P2p://generationnexxxt.com:19806/e77d39049c07479ab0ff57800c6e5b06
TV1,P2p://generationnexxxt.com:19806/d7229d76e8624e8d872d94d081e9524e
TV2,P2p://generationnexxxt.com:19806/265c61c5d7ad468e8e0e437d23797171
TV3,P2p://generationnexxxt.com:19806/5d3a3f2fec3c413d87d0b349ef79951e
NTV7,P2p://generationnexxxt.com:19806/e0c76b1ee7b84e2ea6cbf2ce2ee0c6d3
八度空间,P2p://generationnexxxt.com:19806/008ee1a8a1bf4ab7bd90628a94f82910
TV9,P2p://generationnexxxt.com:19806/ad929cc96e0e4461aa03d7a0a8e1e8c8
Astro Oasis HD,P2p://generationnexxxt.com:19806/96f0df891f684d58a8d92054dcddc076
Al-Hijrah,P2p://generationnexxxt.com:19806/fa90aca55f9847fa942617c76ad4ee50
SUN TV,P2p://generationnexxxt.com:19806/e2f91d24ea26412292bd273186b41a0a
爱奇艺,P2p://generationnexxxt.com:19806/57550dfdc5e44996894431f0f14fb42f
Astro小太阳,P2p://generationnexxxt.com:19806/3f9efc73e52f4cca99985de38ba0f28a
Astro AEC(备),P2p://generationnexxxt.com:19806/affbd07abcc049638a0b5af3f2446ed8
天映频道,P2p://generationnexxxt.com:19806/179f2b9026a9449198a6486cb1bc8481
翡翠台(华丽台),P2p://generationnexxxt.com:19806/06940c129fd5442d9ecfa568fb42859f
Astro AOD HD 311,P2p://generationnexxxt.com:19806/d0efbc512dd0465f9be6144fc53cc32a
中天亚洲台,P2p://generationnexxxt.com:19806/6f522fd08aed4ee19dfb8485917faa66
TVB星河,P2p://generationnexxxt.com:19806/e94f4c244af8464fb06eff4c9da250a6
天映经典,P2p://generationnexxxt.com:19806/3496dc2c5dc1421c8c403eb9c475753e
Astro欢喜台,P2p://generationnexxxt.com:19806/bb11e8d4e30b40cf836fd8617ab85e8d
KBS World,P2p://generationnexxxt.com:19806/d84c7baef30f41cf81e16569afec7d2a
TVS,P2p://generationnexxxt.com:19806/4061655c06c8499680be50df7bbae42e
tvN Movies HD,P2p://generationnexxxt.com:19806/2272a99a946d4f7fac4cbf0dc62fd58b
Astro Awani,P2p://generationnexxxt.com:19806/79faaed4beb040d8afb6e555c929b66a
CGTN,P2p://generationnexxxt.com:19806/1b5e656dd2604b7e9af1133db1f40955
BBC World News,P2p://generationnexxxt.com:19806/68b66fcb526a469c95968a8a62c27f01
CNBC,P2p://generationnexxxt.com:19806/0c7b37b4c3254709945af2916fe4848b
Bloomberg TV,P2p://generationnexxxt.com:19806/b7a11fd04a2f4a44acdab32693edee1e
Astro Ceria,P2p://generationnexxxt.com:19806/aeb0f86165f24fda89427db290065d21
Boomerang,P2p://generationnexxxt.com:19806/60a0b85c79af4aee89ca0d605cdfd7a3
KIX,P2p://generationnexxxt.com:19806/e0df18c976d2448cae5e6dfe8b748fe4
HITS,P2p://generationnexxxt.com:19806/512347b10e364e9bb4d436f495b1a8be
Astro Arena,P2p://generationnexxxt.com:19806/8320c917bc6b48cea94601d851635400
Astro SuperSport,P2p://generationnexxxt.com:19806/6b8163e5f6c24dd3b971c0d22add38dc
Astro SuperSport 2,P2p://generationnexxxt.com:19806/e9358d09c276404f91d27dca79e42b73
Astro SuperSport 3,P2p://generationnexxxt.com:19806/3dd6cd51d294486f85d3bfdfe787a431
Astro SuperSport 4,P2p://generationnexxxt.com:19806/bbe6f81f82924b12b01218e84e081fd5
beIN Sports 3,P2p://generationnexxxt.com:19806/377e62e57ccb4a128195cb09fe8b107f
WWE,P2p://generationnexxxt.com:19806/e3ac5937983b467197d0355d0bfaf53b
Sky News,P2p://generationnexxxt.com:19806/82241dd85d9e4dad885f1c12b11e3d2e
八度空间(备),P2p://generationnexxxt.com:19806/0f8c73716edd4446bc5ce8d9586c3fce
SPOTV Stadia,P2p://generationnexxxt.com:19806/26198a4efb174a2c951ac835ac54aa97
tvN,P2p://generationnexxxt.com:19806/45cb5d3ff4f842178bd262ac32891a0c
France24,P2p://generationnexxxt.com:19806/cff5534d052046bf8a4d8b2047aaa7c0
SPOTV,P2p://generationnexxxt.com:19806/4644a6bafc344250b5feee6805553d42
Astro AEC,P2p://generationnexxxt.com:19806/c1cd28c52536406f902f6cbab7cded05
Awesome TV,P2p://generationnexxxt.com:19806/963a192209f6402e840b937485174c73
BOO,P2p://generationnexxxt.com:19806/b98310cd5c794352bca4cffc500b0cc6
千禧经典台,P2p://generationnexxxt.com:19806/b3069418cdff4c69bb544e4b1ff04d56
ABC Australia,P2p://generationnexxxt.com:19806/cab3e899c937431f812c75c84b5cdf5f
Eurosport HD,P2p://generationnexxxt.com:19806/54e02c4e806047c68c75ac2a325c17d2
Star Vijay,P2p://generationnexxxt.com:19806/b2b5e74aad414e70934ac1a2f3e576ca
Zee Tamil,P2p://generationnexxxt.com:19806/7decd9aaaefe450697b03587dace9c9a
TVBS亚洲,P2p://generationnexxxt.com:19806/7e8e3f90c0434b8d8c0e423e5cb9fbfb
HITS Movies,P2p://generationnexxxt.com:19806/0ea3b9948f824611b4a575cc5a8b4c13
beIN Sports 2,P2p://generationnexxxt.com:19806/23d14199213c426092f9e1002f0f143f
Berita RTM,P2p://generationnexxxt.com:19806/f3fb94168f044bbc9689c7f42f94ac4d
Golf Channel,P2p://generationnexxxt.com:19806/d6d3302276514a79a289a45ec22d88f0
TV Okey,P2p://generationnexxxt.com:19806/5640c9c6b85e458a813d2b44d8f65ece
Boomerang(B),P2p://generationnexxxt.com:19806/16af5143b3544fba92d3ea5e7539ee44
Golf Channel(B),P2p://generationnexxxt.com:19806/1efa1c2e65614ce78d0c6a649fdee46a
beIN Sports 2(B),P2p://generationnexxxt.com:19806/dbf33217b02d466ebaf2776c2b6ba300
TVB娱乐新闻台(B),P2p://generationnexxxt.com:19806/05e767dba8fa48e9ba386ed231c94318
Astro AOD HD 311(B),P2p://generationnexxxt.com:19806/c453e6e3f2fe46c987b8f55587eb0ce7
TVB星河(B),P2p://generationnexxxt.com:19806/afcbb73766d64754bd8d35fc330aae1c
BBC World News(B),P2p://generationnexxxt.com:19806/7fa4771def7c4896b1b9ea7e022f278c
TV9(B),P2p://generationnexxxt.com:19806/2ded50bc29c04480aaad42823d1fc0f2
TV3(B),P2p://generationnexxxt.com:19806/b0236f1ba51f4a70814d5806671dc028
tvN Movies HD(B),P2p://generationnexxxt.com:19806/4cc0c1c2f4204fe0b99ca3552f63894c
beIN Sports,P2p://generationnexxxt.com:19806/9215bd8182d04b67a9285f24816321df
HGTV居家乐活频道,P2p://generationnexxxt.com:19806/695f8cb90c384faaa0a6253d92e35176
中天亚洲台,P2p://generationnexxxt.com:19806/6f522fd08aed4ee19dfb8485917faa66
天映经典,P2p://generationnexxxt.com:19806/3496dc2c5dc1421c8c403eb9c475753e
KBS World,P2p://generationnexxxt.com:19806/d84c7baef30f41cf81e16569afec7d2a
CGTN,P2p://generationnexxxt.com:19806/1b5e656dd2604b7e9af1133db1f40955
CNBC,P2p://generationnexxxt.com:19806/0c7b37b4c3254709945af2916fe4848b
Bloomberg TV,P2p://generationnexxxt.com:19806/b7a11fd04a2f4a44acdab32693edee1e
HITS,P2p://generationnexxxt.com:19806/512347b10e364e9bb4d436f495b1a8be
beIN Sports 3,P2p://generationnexxxt.com:19806/377e62e57ccb4a128195cb09fe8b107f
Mediacorp 5,P2p://generationnexxxt.com:19806/e701bea921da476497494dffe17fa18f
Mediacorp 8,P2p://generationnexxxt.com:19806/916b5919192c43d7afa4496e9ba6090b
Suria,P2p://generationnexxxt.com:19806/ba543c5c308c44ad9cde7fbf4bc72171
Vasantham,P2p://generationnexxxt.com:19806/cc7a8a329a9f4c2cac0bf4df02cb6b6e
CNA,P2p://generationnexxxt.com:19806/061076408ecc4e4c97af6cbe74f897d9
Mediacorp U,P2p://generationnexxxt.com:19806/56d9f8daf4584cc5af47c72f471ae9d7
Euronews,P2p://generationnexxxt.com:19806/43dedaf8037e43ceb06f46baa4391692
Fight Sports,P2p://generationnexxxt.com:19806/afba524c846148f98685fb42b776435c
GEM,P2p://generationnexxxt.com:19806/fa0c81ad25f84ef5bdecb3745934a185
Fox News,P2p://generationnexxxt.com:19806/a6e8a65e41004e1dbc0ee1c762a5d30e
东森亚洲卫视,P2p://generationnexxxt.com:19806/7a269b8d3db44d3993876ad9ca3bd369
Thrill,P2p://generationnexxxt.com:19806/d20fff7aa7d64ab19d2a39da2970734a
TVBS亚洲,P2p://generationnexxxt.com:19806/7e8e3f90c0434b8d8c0e423e5cb9fbfb
NBA,P2p://generationnexxxt.com:19806/7d628a22124a41a59ae81c474d07f573
Fox News(B),P2p://generationnexxxt.com:19806/95842d0c7228442a91d0e8a46a8ee1c9
Mediacorp U(B),P2p://generationnexxxt.com:19806/56430c3beb8449ee94bd402c0860e524
Mediacorp 8(B),P2p://generationnexxxt.com:19806/c73aecdd56e54263975801fb3af30ff5
Loupe 4K,https://d2dw21aq0j0l5c.cloudfront.net/playlist_3840x2160.m3u8

埋堆堆,#genre#
埋堆堆1,https://live.metshop.top/huya/23749096
埋堆堆2,https://live.metshop.top/huya/23735126
埋堆堆3,https://live.metshop.top/huya/23865152
埋堆堆4,https://live.metshop.top/huya/23903196
埋堆堆5,https://live.metshop.top/huya/23740156
埋堆堆6,https://live.metshop.top/huya/23728660
埋堆堆7,https://live.metshop.top/huya/23735153
埋堆堆8,https://live.metshop.top/huya/23865058
埋堆堆9,https://live.metshop.top/huya/23734183
埋堆堆10,https://live.metshop.top/huya/23749068
埋堆堆11,https://live.metshop.top/huya/23865036
埋堆堆12,https://live.metshop.top/huya/23740162
埋堆堆13,https://live.metshop.top/huya/23829474
埋堆堆14,https://live.metshop.top/huya/23863833
埋堆堆15,https://live.metshop.top/huya/23903106
埋堆堆16,https://live.metshop.top/huya/23865025
埋堆堆17,https://live.metshop.top/huya/23728689
埋堆堆18,https://live.metshop.top/huya/23824171
埋堆堆19,https://live.metshop.top/huya/23860057
埋堆堆20,https://live.metshop.top/huya/23865072
埋堆堆21,https://live.metshop.top/huya/23734176
埋堆堆22,https://live.metshop.top/huya/23728651
埋堆堆23,https://live.metshop.top/huya/23734246
埋堆堆24,https://live.metshop.top/huya/23865179
埋堆堆25,https://live.metshop.top/huya/23734196
埋堆堆26,https://live.metshop.top/huya/23734211
埋堆堆27,https://live.metshop.top/huya/23865086
埋堆堆28,https://live.metshop.top/huya/23863796
埋堆堆29,https://live.metshop.top/huya/23863822
埋堆堆30,https://live.metshop.top/huya/23749083
埋堆堆31,https://live.metshop.top/huya/23734243
埋堆堆32,https://live.metshop.top/huya/23864480
埋堆堆33,https://live.metshop.top/huya/23746486
埋堆堆34,https://live.metshop.top/huya/23860049
埋堆堆35,https://live.metshop.top/huya/23749074
埋堆堆36,https://live.metshop.top/huya/23863882
埋堆堆37,https://live.metshop.top/huya/23863778
埋堆堆38,https://live.metshop.top/huya/23824164
埋堆堆39,https://live.metshop.top/huya/23829537
埋堆堆40,https://live.metshop.top/huya/23863809
埋堆堆41,https://live.metshop.top/huya/23865096
埋堆堆42,https://live.metshop.top/huya/23863804
埋堆堆43,https://live.metshop.top/huya/23728630
埋堆堆44,https://live.metshop.top/huya/23863895
埋堆堆45,https://live.metshop.top/huya/23863787
埋堆堆46,https://live.metshop.top/huya/23728637
埋堆堆47,https://live.metshop.top/huya/23865142
埋堆堆48,https://live.metshop.top/huya/23903085
埋堆堆49,https://live.metshop.top/huya/23903183
埋堆堆50,https://live.metshop.top/huya/23728647
埋堆堆51,https://live.metshop.top/huya/23746691
埋堆堆52,https://live.metshop.top/huya/23829447
埋堆堆53,https://live.metshop.top/huya/23728693
埋堆堆54,https://live.metshop.top/huya/23903130
埋堆堆55,https://live.metshop.top/huya/23734223
埋堆堆56,https://live.metshop.top/huya/23734169
埋堆堆57,https://live.metshop.top/huya/23865124
埋堆堆58,https://live.metshop.top/huya/23865186
埋堆堆59,https://live.metshop.top/huya/23902225
埋堆堆60,https://live.metshop.top/huya/23903164
埋堆堆61,https://live.metshop.top/huya/23728674
埋堆堆1,http://43.128.40.42:198/虎牙直播/huya.php?id=23749096
埋堆堆2,http://43.128.40.42:198/虎牙直播/huya.php?id=23735126
埋堆堆3,http://43.128.40.42:198/虎牙直播/huya.php?id=23865152
埋堆堆4,http://43.128.40.42:198/虎牙直播/huya.php?id=23903196
埋堆堆5,http://43.128.40.42:198/虎牙直播/huya.php?id=23740156
埋堆堆6,http://43.128.40.42:198/虎牙直播/huya.php?id=23728660
埋堆堆7,http://43.128.40.42:198/虎牙直播/huya.php?id=23865058
埋堆堆8,http://43.128.40.42:198/虎牙直播/huya.php?id=23734183
埋堆堆9,http://43.128.40.42:198/虎牙直播/huya.php?id=23865036
埋堆堆10,http://43.128.40.42:198/虎牙直播/huya.php?id=23734246
埋堆堆11,http://43.128.40.42:198/虎牙直播/huya.php?id=23863796
埋堆堆12,http://43.128.40.42:198/虎牙直播/huya.php?id=23749083
埋堆堆13,http://43.128.40.42:198/虎牙直播/huya.php?id=23824164
埋堆堆14,http://43.128.40.42:198/虎牙直播/huya.php?id=23863804
埋堆堆15,http://43.128.40.42:198/虎牙直播/huya.php?id=23865142
埋堆堆16,http://43.128.40.42:198/虎牙直播/huya.php?id=23903183
埋堆堆17,http://43.128.40.42:198/虎牙直播/huya.php?id=23903130
埋堆堆18,http://43.128.40.42:198/虎牙直播/huya.php?id=23734169
埋堆堆19,http://43.128.40.42:198/虎牙直播/huya.php?id=23728674
埋堆堆20,http://43.128.40.42:198/虎牙直播/huya.php?id=23735153
埋堆堆21,http://43.128.40.42:198/虎牙直播/huya.php?id=23749068
埋堆堆22,http://43.128.40.42:198/虎牙直播/huya.php?id=23740162
埋堆堆23,http://43.128.40.42:198/虎牙直播/huya.php?id=23829474
埋堆堆24,http://43.128.40.42:198/虎牙直播/huya.php?id=23863833
埋堆堆25,http://43.128.40.42:198/虎牙直播/huya.php?id=23903106
埋堆堆26,http://43.128.40.42:198/虎牙直播/huya.php?id=23865025
埋堆堆27,http://43.128.40.42:198/虎牙直播/huya.php?id=23728689
埋堆堆28,http://43.128.40.42:198/虎牙直播/huya.php?id=23824171
埋堆堆29,http://43.128.40.42:198/虎牙直播/huya.php?id=23860057
埋堆堆30,http://43.128.40.42:198/虎牙直播/huya.php?id=23865072
埋堆堆31,http://43.128.40.42:198/虎牙直播/huya.php?id=23734176
埋堆堆32,http://43.128.40.42:198/虎牙直播/huya.php?id=23728651
埋堆堆33,http://43.128.40.42:198/虎牙直播/huya.php?id=23865179
埋堆堆34,http://43.128.40.42:198/虎牙直播/huya.php?id=23734196
埋堆堆35,http://43.128.40.42:198/虎牙直播/huya.php?id=23734211
埋堆堆36,http://43.128.40.42:198/虎牙直播/huya.php?id=23865086
埋堆堆37,http://43.128.40.42:198/虎牙直播/huya.php?id=23863822
埋堆堆38,http://43.128.40.42:198/虎牙直播/huya.php?id=23734243
埋堆堆39,http://43.128.40.42:198/虎牙直播/huya.php?id=23864480
埋堆堆40,http://43.128.40.42:198/虎牙直播/huya.php?id=23746486
埋堆堆41,http://43.128.40.42:198/虎牙直播/huya.php?id=23860049
埋堆堆42,http://43.128.40.42:198/虎牙直播/huya.php?id=23749074
埋堆堆43,http://43.128.40.42:198/虎牙直播/huya.php?id=23863882
埋堆堆44,http://43.128.40.42:198/虎牙直播/huya.php?id=23863778
埋堆堆45,http://43.128.40.42:198/虎牙直播/huya.php?id=23829537
埋堆堆46,http://43.128.40.42:198/虎牙直播/huya.php?id=23863809
埋堆堆47,http://43.128.40.42:198/虎牙直播/huya.php?id=23865096
埋堆堆48,http://43.128.40.42:198/虎牙直播/huya.php?id=23728630
埋堆堆49,http://43.128.40.42:198/虎牙直播/huya.php?id=23863895
埋堆堆50,http://43.128.40.42:198/虎牙直播/huya.php?id=23863787
埋堆堆51,http://43.128.40.42:198/虎牙直播/huya.php?id=23728637
埋堆堆52,http://43.128.40.42:198/虎牙直播/huya.php?id=23903085
埋堆堆53,http://43.128.40.42:198/虎牙直播/huya.php?id=23728647
埋堆堆54,http://43.128.40.42:198/虎牙直播/huya.php?id=23746691
埋堆堆55,http://43.128.40.42:198/虎牙直播/huya.php?id=23829447
埋堆堆56,http://43.128.40.42:198/虎牙直播/huya.php?id=23728693
埋堆堆57,http://43.128.40.42:198/虎牙直播/huya.php?id=23734223
埋堆堆58,http://43.128.40.42:198/虎牙直播/huya.php?id=23865124
埋堆堆59,http://43.128.40.42:198/虎牙直播/huya.php?id=23865186
埋堆堆60,http://43.128.40.42:198/虎牙直播/huya.php?id=23902225
埋堆堆61,http://43.128.40.42:198/虎牙直播/huya.php?id=23903164
埋堆堆62,http://43.128.40.42:198/虎牙直播/huya.php?id=23863818