{
  "spider": "https://github.com/custom_spider.jar",
  "sites": [
    {

      "key": "one",
      "name": "One",
      "type": 3,//Type 0-xml 1-json 2-爬虫源 3-自定义爬虫 4-服务器爬虫
      "api": "csp_Csp",
      "searchable": 1,//可搜索? 0-不可以 1-可以
      "quickSearch":1,//可快速搜索? 0-不可以 1-可以
      "changeable": 1,
      "ext": "https://github.com/one.json"
    },
    {
      "key": "two",
      "name": "Two",
      "type": 3,
      "api": "csp_Csp",
      "searchable": 1,
      "changeable": 1,
      "ext": "https://github.com/two.json"
    },
    {
      "key": "extend",
      "name": "Extend",
      "type": 3,
      "api": "csp_Csp",
      "searchable": 1,
      "changeable": 1,
      "ext": "https://github.com/extend.json",
      "jar": "https://github.com/extend.jar"
    }
  ]
}